<?xml version="1.0" encoding="UTF-8" standalone="no"?>
<!DOCTYPE svg PUBLIC "-//W3C//DTD SVG 1.1//EN" "http://www.w3.org/Graphics/SVG/1.1/DTD/svg11.dtd">
<svg width="256px" height="208px" version="1.1" xmlns="http://www.w3.org/2000/svg" xmlns:xlink="http://www.w3.org/1999/xlink" xml:space="preserve" xmlns:serif="http://www.serif.com/" style="fill-rule:evenodd;clip-rule:evenodd;stroke-linecap:round;stroke-linejoin:round;stroke-miterlimit:1.5;">
    <rect id="Alice-Hintergrund" serif:id="Alice Hintergrund" x="16" y="16" width="224" height="32" style="fill:rgb(255,249,196);stroke:rgb(245,127,23);stroke-width:2px;"/>
    <rect id="Alice-Hintergrund1" serif:id="Alice Hintergrund" x="16" y="64" width="224" height="32" style="fill:rgb(255,204,188);stroke:rgb(191,54,12);stroke-width:2px;"/>
    <rect id="Alice-Hintergrund2" serif:id="Alice Hintergrund" x="16" y="112" width="224" height="32" style="fill:rgb(187,222,251);stroke:rgb(13,71,161);stroke-width:2px;"/>
    <text x="39.143px" y="37.054px" style="font-family:'ArialMT', 'Arial', sans-serif;font-size:20px;">Anwendungsschicht</text>
    <text x="54.294px" y="85.171px" style="font-family:'ArialMT', 'Arial', sans-serif;font-size:20px;">T<tspan x="65.769px 72.429px " y="85.171px 85.171px ">ra</tspan>nsportschicht</text>
    <text x="41.882px" y="133.054px" style="font-family:'ArialMT', 'Arial', sans-serif;font-size:20px;">V<tspan x="54.118px 65.241px " y="133.054px 133.054px ">er</tspan>mittlungsschicht</text>
    <rect id="Alice-Hintergrund3" serif:id="Alice Hintergrund" x="16" y="160" width="224" height="32" style="fill:rgb(224,224,224);stroke:rgb(66,66,66);stroke-width:2px;"/>
    <text x="37.59px" y="181.054px" style="font-family:'ArialMT', 'Arial', sans-serif;font-size:20px;">Netzzugangsschicht</text>
</svg>
