<?xml version="1.0" encoding="UTF-8" standalone="no"?>
<svg
   xmlns:dc="http://purl.org/dc/elements/1.1/"
   xmlns:cc="http://creativecommons.org/ns#"
   xmlns:rdf="http://www.w3.org/1999/02/22-rdf-syntax-ns#"
   xmlns:svg="http://www.w3.org/2000/svg"
   xmlns="http://www.w3.org/2000/svg"
   xmlns:xlink="http://www.w3.org/1999/xlink"
   xmlns:sodipodi="http://sodipodi.sourceforge.net/DTD/sodipodi-0.dtd"
   xmlns:inkscape="http://www.inkscape.org/namespaces/inkscape"
   width="642pt"
   height="362pt"
   viewBox="0 0 642 362"
   version="1.1"
   id="svg288"
   sodipodi:docname="box-model.svg"
   inkscape:version="0.92.1 r15371">
  <metadata
     id="metadata292">
    <rdf:RDF>
      <cc:Work
         rdf:about="">
        <dc:format>image/svg+xml</dc:format>
        <dc:type
           rdf:resource="http://purl.org/dc/dcmitype/StillImage" />
        <dc:title></dc:title>
      </cc:Work>
    </rdf:RDF>
  </metadata>
  <sodipodi:namedview
     pagecolor="#ffffff"
     bordercolor="#666666"
     borderopacity="1"
     objecttolerance="10"
     gridtolerance="10"
     guidetolerance="10"
     inkscape:pageopacity="0"
     inkscape:pageshadow="2"
     inkscape:window-width="640"
     inkscape:window-height="480"
     id="namedview290"
     showgrid="false"
     inkscape:zoom="0.57596685"
     inkscape:cx="-71.160671"
     inkscape:cy="234.38849"
     inkscape:current-layer="svg288" />
  <defs
     id="defs109">
    <g
       id="g107">
      <symbol
         overflow="visible"
         id="glyph0-0">
        <path
           style="stroke:none;"
           d="M 0.859375 3 L 0.859375 -11.984375 L 9.359375 -11.984375 L 9.359375 3 Z M 1.8125 2.0625 L 8.421875 2.0625 L 8.421875 -11.03125 L 1.8125 -11.03125 Z M 1.8125 2.0625 "
           id="path2" />
      </symbol>
      <symbol
         overflow="visible"
         id="glyph0-1">
        <path
           style="stroke:none;"
           d="M 5.609375 -8.34375 C 5.796875 -8.75 6.035156 -9.046875 6.328125 -9.234375 C 6.617188 -9.421875 6.96875 -9.515625 7.375 -9.515625 C 8.125 -9.515625 8.648438 -9.222656 8.953125 -8.640625 C 9.265625 -8.066406 9.421875 -6.984375 9.421875 -5.390625 L 9.421875 0 L 8.03125 0 L 8.03125 -5.328125 C 8.03125 -6.628906 7.957031 -7.441406 7.8125 -7.765625 C 7.664062 -8.085938 7.394531 -8.25 7 -8.25 C 6.5625 -8.25 6.257812 -8.078125 6.09375 -7.734375 C 5.9375 -7.390625 5.859375 -6.585938 5.859375 -5.328125 L 5.859375 0 L 4.453125 0 L 4.453125 -5.328125 C 4.453125 -6.648438 4.375 -7.46875 4.21875 -7.78125 C 4.0625 -8.09375 3.78125 -8.25 3.375 -8.25 C 2.96875 -8.25 2.6875 -8.078125 2.53125 -7.734375 C 2.375 -7.390625 2.296875 -6.585938 2.296875 -5.328125 L 2.296875 0 L 0.90625 0 L 0.90625 -9.296875 L 2.296875 -9.296875 L 2.296875 -8.5 C 2.472656 -8.832031 2.695312 -9.082031 2.96875 -9.25 C 3.25 -9.425781 3.5625 -9.515625 3.90625 -9.515625 C 4.332031 -9.515625 4.679688 -9.414062 4.953125 -9.21875 C 5.234375 -9.03125 5.453125 -8.738281 5.609375 -8.34375 Z M 5.609375 -8.34375 "
           id="path5" />
      </symbol>
      <symbol
         overflow="visible"
         id="glyph0-2">
        <path
           style="stroke:none;"
           d="M 5.828125 -4.671875 L 5.328125 -4.671875 C 4.429688 -4.671875 3.753906 -4.515625 3.296875 -4.203125 C 2.847656 -3.890625 2.625 -3.425781 2.625 -2.8125 C 2.625 -2.25 2.789062 -1.8125 3.125 -1.5 C 3.46875 -1.1875 3.941406 -1.03125 4.546875 -1.03125 C 5.378906 -1.03125 6.035156 -1.320312 6.515625 -1.90625 C 7.003906 -2.5 7.25 -3.304688 7.25 -4.328125 L 7.25 -4.671875 Z M 8.796875 -5.296875 L 8.796875 0 L 7.25 0 L 7.25 -1.375 C 6.925781 -0.820312 6.515625 -0.414062 6.015625 -0.15625 C 5.523438 0.101562 4.925781 0.234375 4.21875 0.234375 C 3.269531 0.234375 2.515625 -0.03125 1.953125 -0.5625 C 1.390625 -1.09375 1.109375 -1.804688 1.109375 -2.703125 C 1.109375 -3.742188 1.453125 -4.53125 2.140625 -5.0625 C 2.835938 -5.601562 3.859375 -5.875 5.203125 -5.875 L 7.25 -5.875 L 7.25 -6.109375 C 7.25 -6.847656 7.0625 -7.382812 6.6875 -7.71875 C 6.320312 -8.050781 5.734375 -8.21875 4.921875 -8.21875 C 4.398438 -8.21875 3.875 -8.144531 3.34375 -8 C 2.8125 -7.851562 2.289062 -7.632812 1.78125 -7.34375 L 1.78125 -8.875 C 2.34375 -9.09375 2.882812 -9.253906 3.40625 -9.359375 C 3.925781 -9.460938 4.429688 -9.515625 4.921875 -9.515625 C 5.679688 -9.515625 6.332031 -9.398438 6.875 -9.171875 C 7.425781 -8.953125 7.867188 -8.613281 8.203125 -8.15625 C 8.421875 -7.882812 8.570312 -7.546875 8.65625 -7.140625 C 8.75 -6.734375 8.796875 -6.117188 8.796875 -5.296875 Z M 8.796875 -5.296875 "
           id="path8" />
      </symbol>
      <symbol
         overflow="visible"
         id="glyph0-3">
        <path
           style="stroke:none;"
           d="M 9.59375 -7.375 C 9.257812 -7.632812 8.921875 -7.820312 8.578125 -7.9375 C 8.242188 -8.050781 7.878906 -8.109375 7.484375 -8.109375 C 6.523438 -8.109375 5.796875 -7.804688 5.296875 -7.203125 C 4.796875 -6.609375 4.546875 -5.75 4.546875 -4.625 L 4.546875 0 L 3 0 L 3 -9.296875 L 4.546875 -9.296875 L 4.546875 -7.484375 C 4.796875 -8.140625 5.1875 -8.640625 5.71875 -8.984375 C 6.25 -9.335938 6.875 -9.515625 7.59375 -9.515625 C 7.96875 -9.515625 8.316406 -9.46875 8.640625 -9.375 C 8.972656 -9.28125 9.289062 -9.132812 9.59375 -8.9375 Z M 9.59375 -7.375 "
           id="path11" />
      </symbol>
      <symbol
         overflow="visible"
         id="glyph0-4">
        <path
           style="stroke:none;"
           d="M 7.125 -4.71875 C 7.125 -5.863281 6.9375 -6.734375 6.5625 -7.328125 C 6.1875 -7.921875 5.644531 -8.21875 4.9375 -8.21875 C 4.1875 -8.21875 3.613281 -7.921875 3.21875 -7.328125 C 2.820312 -6.734375 2.625 -5.863281 2.625 -4.71875 C 2.625 -3.570312 2.820312 -2.695312 3.21875 -2.09375 C 3.613281 -1.5 4.191406 -1.203125 4.953125 -1.203125 C 5.648438 -1.203125 6.1875 -1.503906 6.5625 -2.109375 C 6.9375 -2.710938 7.125 -3.582031 7.125 -4.71875 Z M 8.65625 -0.59375 C 8.65625 0.800781 8.320312 1.859375 7.65625 2.578125 C 7 3.296875 6.03125 3.65625 4.75 3.65625 C 4.332031 3.65625 3.894531 3.613281 3.4375 3.53125 C 2.976562 3.457031 2.519531 3.347656 2.0625 3.203125 L 2.0625 1.6875 C 2.601562 1.9375 3.09375 2.125 3.53125 2.25 C 3.976562 2.375 4.382812 2.4375 4.75 2.4375 C 5.582031 2.4375 6.1875 2.210938 6.5625 1.765625 C 6.9375 1.316406 7.125 0.601562 7.125 -0.375 L 7.125 -1.484375 C 6.875 -0.960938 6.539062 -0.570312 6.125 -0.3125 C 5.707031 -0.0625 5.195312 0.0625 4.59375 0.0625 C 3.507812 0.0625 2.640625 -0.367188 1.984375 -1.234375 C 1.335938 -2.109375 1.015625 -3.269531 1.015625 -4.71875 C 1.015625 -6.1875 1.335938 -7.351562 1.984375 -8.21875 C 2.640625 -9.082031 3.507812 -9.515625 4.59375 -9.515625 C 5.1875 -9.515625 5.691406 -9.394531 6.109375 -9.15625 C 6.523438 -8.925781 6.863281 -8.5625 7.125 -8.0625 L 7.125 -9.265625 L 8.65625 -9.265625 Z M 8.65625 -0.59375 "
           id="path14" />
      </symbol>
      <symbol
         overflow="visible"
         id="glyph0-5">
        <path
           style="stroke:none;"
           d="M 2.125 -9.296875 L 6.03125 -9.296875 L 6.03125 -1.1875 L 9.0625 -1.1875 L 9.0625 0 L 1.484375 0 L 1.484375 -1.1875 L 4.5 -1.1875 L 4.5 -8.109375 L 2.125 -8.109375 Z M 4.5 -12.921875 L 6.03125 -12.921875 L 6.03125 -10.984375 L 4.5 -10.984375 Z M 4.5 -12.921875 "
           id="path17" />
      </symbol>
      <symbol
         overflow="visible"
         id="glyph0-6">
        <path
           style="stroke:none;"
           d="M 8.71875 -5.765625 L 8.71875 0 L 7.1875 0 L 7.1875 -5.765625 C 7.1875 -6.597656 7.039062 -7.207031 6.75 -7.59375 C 6.457031 -7.988281 6 -8.1875 5.375 -8.1875 C 4.65625 -8.1875 4.101562 -7.929688 3.71875 -7.421875 C 3.332031 -6.921875 3.140625 -6.195312 3.140625 -5.25 L 3.140625 0 L 1.625 0 L 1.625 -9.296875 L 3.140625 -9.296875 L 3.140625 -7.90625 C 3.410156 -8.4375 3.78125 -8.835938 4.25 -9.109375 C 4.71875 -9.378906 5.269531 -9.515625 5.90625 -9.515625 C 6.851562 -9.515625 7.554688 -9.203125 8.015625 -8.578125 C 8.484375 -7.960938 8.71875 -7.023438 8.71875 -5.765625 Z M 8.71875 -5.765625 "
           id="path20" />
      </symbol>
      <symbol
         overflow="visible"
         id="glyph0-7">
        <path
           style="stroke:none;"
           d="M 7.625 -4.640625 C 7.625 -5.828125 7.429688 -6.71875 7.046875 -7.3125 C 6.671875 -7.914062 6.117188 -8.21875 5.390625 -8.21875 C 4.648438 -8.21875 4.085938 -7.914062 3.703125 -7.3125 C 3.316406 -6.707031 3.125 -5.816406 3.125 -4.640625 C 3.125 -3.460938 3.316406 -2.566406 3.703125 -1.953125 C 4.085938 -1.347656 4.648438 -1.046875 5.390625 -1.046875 C 6.117188 -1.046875 6.671875 -1.347656 7.046875 -1.953125 C 7.429688 -2.554688 7.625 -3.453125 7.625 -4.640625 Z M 3.125 -8.109375 C 3.375 -8.566406 3.710938 -8.914062 4.140625 -9.15625 C 4.566406 -9.394531 5.0625 -9.515625 5.625 -9.515625 C 6.75 -9.515625 7.628906 -9.082031 8.265625 -8.21875 C 8.910156 -7.363281 9.234375 -6.179688 9.234375 -4.671875 C 9.234375 -3.140625 8.910156 -1.9375 8.265625 -1.0625 C 7.617188 -0.195312 6.734375 0.234375 5.609375 0.234375 C 5.054688 0.234375 4.566406 0.113281 4.140625 -0.125 C 3.722656 -0.363281 3.382812 -0.710938 3.125 -1.171875 L 3.125 0 L 1.609375 0 L 1.609375 -12.921875 L 3.125 -12.921875 Z M 3.125 -8.109375 "
           id="path23" />
      </symbol>
      <symbol
         overflow="visible"
         id="glyph0-8">
        <path
           style="stroke:none;"
           d="M 5.109375 -8.21875 C 4.335938 -8.21875 3.75 -7.914062 3.34375 -7.3125 C 2.945312 -6.71875 2.75 -5.828125 2.75 -4.640625 C 2.75 -3.460938 2.945312 -2.566406 3.34375 -1.953125 C 3.75 -1.347656 4.335938 -1.046875 5.109375 -1.046875 C 5.890625 -1.046875 6.476562 -1.347656 6.875 -1.953125 C 7.28125 -2.566406 7.484375 -3.460938 7.484375 -4.640625 C 7.484375 -5.828125 7.28125 -6.71875 6.875 -7.3125 C 6.476562 -7.914062 5.890625 -8.21875 5.109375 -8.21875 Z M 5.109375 -9.515625 C 6.398438 -9.515625 7.382812 -9.097656 8.0625 -8.265625 C 8.75 -7.429688 9.09375 -6.222656 9.09375 -4.640625 C 9.09375 -3.054688 8.753906 -1.847656 8.078125 -1.015625 C 7.398438 -0.179688 6.410156 0.234375 5.109375 0.234375 C 3.816406 0.234375 2.832031 -0.179688 2.15625 -1.015625 C 1.476562 -1.847656 1.140625 -3.054688 1.140625 -4.640625 C 1.140625 -6.222656 1.476562 -7.429688 2.15625 -8.265625 C 2.832031 -9.097656 3.816406 -9.515625 5.109375 -9.515625 Z M 5.109375 -9.515625 "
           id="path26" />
      </symbol>
      <symbol
         overflow="visible"
         id="glyph0-9">
        <path
           style="stroke:none;"
           d="M 7.125 -8.109375 L 7.125 -12.921875 L 8.65625 -12.921875 L 8.65625 0 L 7.125 0 L 7.125 -1.171875 C 6.863281 -0.710938 6.519531 -0.363281 6.09375 -0.125 C 5.675781 0.113281 5.191406 0.234375 4.640625 0.234375 C 3.515625 0.234375 2.628906 -0.195312 1.984375 -1.0625 C 1.335938 -1.9375 1.015625 -3.140625 1.015625 -4.671875 C 1.015625 -6.179688 1.335938 -7.363281 1.984375 -8.21875 C 2.640625 -9.082031 3.523438 -9.515625 4.640625 -9.515625 C 5.203125 -9.515625 5.691406 -9.394531 6.109375 -9.15625 C 6.535156 -8.914062 6.875 -8.566406 7.125 -8.109375 Z M 2.625 -4.640625 C 2.625 -3.453125 2.8125 -2.554688 3.1875 -1.953125 C 3.570312 -1.347656 4.128906 -1.046875 4.859375 -1.046875 C 5.597656 -1.046875 6.160156 -1.347656 6.546875 -1.953125 C 6.929688 -2.566406 7.125 -3.460938 7.125 -4.640625 C 7.125 -5.816406 6.929688 -6.707031 6.546875 -7.3125 C 6.160156 -7.914062 5.597656 -8.21875 4.859375 -8.21875 C 4.128906 -8.21875 3.570312 -7.914062 3.1875 -7.3125 C 2.8125 -6.71875 2.625 -5.828125 2.625 -4.640625 Z M 2.625 -4.640625 "
           id="path29" />
      </symbol>
      <symbol
         overflow="visible"
         id="glyph0-10">
        <path
           style="stroke:none;"
           d="M 9.234375 -5.03125 L 9.234375 -4.28125 L 2.609375 -4.28125 L 2.609375 -4.234375 C 2.609375 -3.222656 2.875 -2.4375 3.40625 -1.875 C 3.9375 -1.320312 4.679688 -1.046875 5.640625 -1.046875 C 6.128906 -1.046875 6.640625 -1.125 7.171875 -1.28125 C 7.703125 -1.4375 8.269531 -1.675781 8.875 -2 L 8.875 -0.46875 C 8.289062 -0.226562 7.726562 -0.0507812 7.1875 0.0625 C 6.65625 0.175781 6.132812 0.234375 5.625 0.234375 C 4.1875 0.234375 3.054688 -0.195312 2.234375 -1.0625 C 1.421875 -1.925781 1.015625 -3.117188 1.015625 -4.640625 C 1.015625 -6.117188 1.410156 -7.300781 2.203125 -8.1875 C 3.003906 -9.070312 4.070312 -9.515625 5.40625 -9.515625 C 6.59375 -9.515625 7.523438 -9.113281 8.203125 -8.3125 C 8.890625 -7.507812 9.234375 -6.414062 9.234375 -5.03125 Z M 7.703125 -5.484375 C 7.679688 -6.378906 7.46875 -7.054688 7.0625 -7.515625 C 6.664062 -7.984375 6.09375 -8.21875 5.34375 -8.21875 C 4.601562 -8.21875 3.992188 -7.972656 3.515625 -7.484375 C 3.046875 -7.003906 2.765625 -6.332031 2.671875 -5.46875 Z M 7.703125 -5.484375 "
           id="path32" />
      </symbol>
      <symbol
         overflow="visible"
         id="glyph0-11">
        <path
           style="stroke:none;"
           d="M 3.109375 -1.171875 L 3.109375 3.53125 L 1.578125 3.53125 L 1.578125 -9.296875 L 3.109375 -9.296875 L 3.109375 -8.109375 C 3.367188 -8.566406 3.707031 -8.914062 4.125 -9.15625 C 4.550781 -9.394531 5.039062 -9.515625 5.59375 -9.515625 C 6.71875 -9.515625 7.597656 -9.082031 8.234375 -8.21875 C 8.878906 -7.351562 9.203125 -6.148438 9.203125 -4.609375 C 9.203125 -3.097656 8.878906 -1.910156 8.234375 -1.046875 C 7.585938 -0.191406 6.707031 0.234375 5.59375 0.234375 C 5.03125 0.234375 4.535156 0.113281 4.109375 -0.125 C 3.691406 -0.363281 3.359375 -0.710938 3.109375 -1.171875 Z M 7.59375 -4.640625 C 7.59375 -5.828125 7.40625 -6.71875 7.03125 -7.3125 C 6.65625 -7.914062 6.101562 -8.21875 5.375 -8.21875 C 4.632812 -8.21875 4.070312 -7.914062 3.6875 -7.3125 C 3.300781 -6.707031 3.109375 -5.816406 3.109375 -4.640625 C 3.109375 -3.460938 3.300781 -2.566406 3.6875 -1.953125 C 4.070312 -1.347656 4.632812 -1.046875 5.375 -1.046875 C 6.101562 -1.046875 6.65625 -1.347656 7.03125 -1.953125 C 7.40625 -2.554688 7.59375 -3.453125 7.59375 -4.640625 Z M 7.59375 -4.640625 "
           id="path35" />
      </symbol>
      <symbol
         overflow="visible"
         id="glyph1-0">
        <path
           style="stroke:none;"
           d="M 0.84375 3 L 0.84375 -11.984375 L 9.34375 -11.984375 L 9.34375 3 Z M 1.796875 2.0625 L 8.40625 2.0625 L 8.40625 -11.03125 L 1.796875 -11.03125 Z M 1.796875 2.0625 "
           id="path38" />
      </symbol>
      <symbol
         overflow="visible"
         id="glyph1-1">
        <path
           style="stroke:none;"
           d="M 1.671875 -12.390625 L 3.34375 -12.390625 L 3.34375 0 L 1.671875 0 Z M 1.671875 -12.390625 "
           id="path41" />
      </symbol>
      <symbol
         overflow="visible"
         id="glyph1-2">
        <path
           style="stroke:none;"
           d="M 9.328125 -5.609375 L 9.328125 0 L 7.796875 0 L 7.796875 -5.5625 C 7.796875 -6.4375 7.625 -7.09375 7.28125 -7.53125 C 6.945312 -7.96875 6.4375 -8.1875 5.75 -8.1875 C 4.914062 -8.1875 4.257812 -7.921875 3.78125 -7.390625 C 3.3125 -6.867188 3.078125 -6.15625 3.078125 -5.25 L 3.078125 0 L 1.546875 0 L 1.546875 -9.296875 L 3.078125 -9.296875 L 3.078125 -7.859375 C 3.441406 -8.410156 3.867188 -8.820312 4.359375 -9.09375 C 4.859375 -9.375 5.429688 -9.515625 6.078125 -9.515625 C 7.148438 -9.515625 7.957031 -9.179688 8.5 -8.515625 C 9.050781 -7.859375 9.328125 -6.890625 9.328125 -5.609375 Z M 9.328125 -5.609375 "
           id="path44" />
      </symbol>
      <symbol
         overflow="visible"
         id="glyph1-3">
        <path
           style="stroke:none;"
           d="M 9.328125 -5.609375 L 9.328125 0 L 7.796875 0 L 7.796875 -5.5625 C 7.796875 -6.4375 7.625 -7.09375 7.28125 -7.53125 C 6.945312 -7.96875 6.4375 -8.1875 5.75 -8.1875 C 4.914062 -8.1875 4.257812 -7.921875 3.78125 -7.390625 C 3.3125 -6.867188 3.078125 -6.15625 3.078125 -5.25 L 3.078125 0 L 1.546875 0 L 1.546875 -12.921875 L 3.078125 -12.921875 L 3.078125 -7.859375 C 3.441406 -8.410156 3.867188 -8.820312 4.359375 -9.09375 C 4.859375 -9.375 5.429688 -9.515625 6.078125 -9.515625 C 7.148438 -9.515625 7.957031 -9.179688 8.5 -8.515625 C 9.050781 -7.859375 9.328125 -6.890625 9.328125 -5.609375 Z M 9.328125 -5.609375 "
           id="path47" />
      </symbol>
      <symbol
         overflow="visible"
         id="glyph1-4">
        <path
           style="stroke:none;"
           d="M 5.828125 -4.671875 C 4.585938 -4.671875 3.726562 -4.53125 3.25 -4.25 C 2.78125 -3.96875 2.546875 -3.488281 2.546875 -2.8125 C 2.546875 -2.269531 2.722656 -1.835938 3.078125 -1.515625 C 3.441406 -1.191406 3.929688 -1.03125 4.546875 -1.03125 C 5.390625 -1.03125 6.066406 -1.332031 6.578125 -1.9375 C 7.085938 -2.539062 7.34375 -3.335938 7.34375 -4.328125 L 7.34375 -4.671875 Z M 8.875 -5.296875 L 8.875 0 L 7.34375 0 L 7.34375 -1.40625 C 7 -0.84375 6.566406 -0.425781 6.046875 -0.15625 C 5.523438 0.101562 4.890625 0.234375 4.140625 0.234375 C 3.179688 0.234375 2.421875 -0.03125 1.859375 -0.5625 C 1.296875 -1.09375 1.015625 -1.804688 1.015625 -2.703125 C 1.015625 -3.753906 1.363281 -4.546875 2.0625 -5.078125 C 2.769531 -5.609375 3.816406 -5.875 5.203125 -5.875 L 7.34375 -5.875 L 7.34375 -6.015625 C 7.34375 -6.722656 7.109375 -7.265625 6.640625 -7.640625 C 6.179688 -8.023438 5.535156 -8.21875 4.703125 -8.21875 C 4.171875 -8.21875 3.65625 -8.15625 3.15625 -8.03125 C 2.65625 -7.90625 2.171875 -7.71875 1.703125 -7.46875 L 1.703125 -8.875 C 2.265625 -9.09375 2.804688 -9.253906 3.328125 -9.359375 C 3.859375 -9.460938 4.367188 -9.515625 4.859375 -9.515625 C 6.203125 -9.515625 7.207031 -9.164062 7.875 -8.46875 C 8.539062 -7.769531 8.875 -6.710938 8.875 -5.296875 Z M 8.875 -5.296875 "
           id="path50" />
      </symbol>
      <symbol
         overflow="visible"
         id="glyph1-5">
        <path
           style="stroke:none;"
           d="M 1.609375 -12.921875 L 3.125 -12.921875 L 3.125 0 L 1.609375 0 Z M 1.609375 -12.921875 "
           id="path53" />
      </symbol>
      <symbol
         overflow="visible"
         id="glyph1-6">
        <path
           style="stroke:none;"
           d="M 3.109375 -11.9375 L 3.109375 -9.296875 L 6.265625 -9.296875 L 6.265625 -8.109375 L 3.109375 -8.109375 L 3.109375 -3.0625 C 3.109375 -2.300781 3.210938 -1.8125 3.421875 -1.59375 C 3.628906 -1.382812 4.050781 -1.28125 4.6875 -1.28125 L 6.265625 -1.28125 L 6.265625 0 L 4.6875 0 C 3.507812 0 2.695312 -0.21875 2.25 -0.65625 C 1.800781 -1.09375 1.578125 -1.894531 1.578125 -3.0625 L 1.578125 -8.109375 L 0.453125 -8.109375 L 0.453125 -9.296875 L 1.578125 -9.296875 L 1.578125 -11.9375 Z M 3.109375 -11.9375 "
           id="path56" />
      </symbol>
      <symbol
         overflow="visible"
         id="glyph1-7">
        <path
           style="stroke:none;"
           d="M 5.8125 -10.734375 L 3.53125 -4.578125 L 8.09375 -4.578125 Z M 4.859375 -12.390625 L 6.765625 -12.390625 L 11.484375 0 L 9.75 0 L 8.609375 -3.171875 L 3.03125 -3.171875 L 1.90625 0 L 0.140625 0 Z M 4.859375 -12.390625 "
           id="path59" />
      </symbol>
      <symbol
         overflow="visible"
         id="glyph1-8">
        <path
           style="stroke:none;"
           d="M 1.4375 -3.671875 L 1.4375 -9.296875 L 2.96875 -9.296875 L 2.96875 -3.734375 C 2.96875 -2.847656 3.140625 -2.1875 3.484375 -1.75 C 3.828125 -1.3125 4.34375 -1.09375 5.03125 -1.09375 C 5.851562 -1.09375 6.503906 -1.351562 6.984375 -1.875 C 7.460938 -2.40625 7.703125 -3.125 7.703125 -4.03125 L 7.703125 -9.296875 L 9.234375 -9.296875 L 9.234375 0 L 7.703125 0 L 7.703125 -1.421875 C 7.328125 -0.859375 6.894531 -0.441406 6.40625 -0.171875 C 5.914062 0.0976562 5.347656 0.234375 4.703125 0.234375 C 3.640625 0.234375 2.828125 -0.09375 2.265625 -0.75 C 1.710938 -1.414062 1.4375 -2.390625 1.4375 -3.671875 Z M 5.28125 -9.515625 Z M 5.28125 -9.515625 "
           id="path62" />
      </symbol>
      <symbol
         overflow="visible"
         id="glyph1-9">
        <path
           style="stroke:none;"
           d="M 7.53125 -9.015625 L 7.53125 -7.578125 C 7.09375 -7.796875 6.640625 -7.960938 6.171875 -8.078125 C 5.710938 -8.191406 5.234375 -8.25 4.734375 -8.25 C 3.984375 -8.25 3.414062 -8.128906 3.03125 -7.890625 C 2.65625 -7.660156 2.46875 -7.3125 2.46875 -6.84375 C 2.46875 -6.488281 2.601562 -6.210938 2.875 -6.015625 C 3.144531 -5.816406 3.6875 -5.625 4.5 -5.4375 L 5.03125 -5.328125 C 6.113281 -5.085938 6.882812 -4.753906 7.34375 -4.328125 C 7.800781 -3.910156 8.03125 -3.320312 8.03125 -2.5625 C 8.03125 -1.695312 7.6875 -1.015625 7 -0.515625 C 6.320312 -0.015625 5.382812 0.234375 4.1875 0.234375 C 3.6875 0.234375 3.164062 0.1875 2.625 0.09375 C 2.082031 0 1.515625 -0.144531 0.921875 -0.34375 L 0.921875 -1.921875 C 1.484375 -1.628906 2.035156 -1.40625 2.578125 -1.25 C 3.128906 -1.101562 3.675781 -1.03125 4.21875 -1.03125 C 4.9375 -1.03125 5.488281 -1.15625 5.875 -1.40625 C 6.257812 -1.65625 6.453125 -2.003906 6.453125 -2.453125 C 6.453125 -2.867188 6.3125 -3.1875 6.03125 -3.40625 C 5.757812 -3.625 5.148438 -3.835938 4.203125 -4.046875 L 3.671875 -4.171875 C 2.722656 -4.367188 2.035156 -4.671875 1.609375 -5.078125 C 1.191406 -5.492188 0.984375 -6.0625 0.984375 -6.78125 C 0.984375 -7.65625 1.289062 -8.328125 1.90625 -8.796875 C 2.53125 -9.273438 3.414062 -9.515625 4.5625 -9.515625 C 5.125 -9.515625 5.648438 -9.472656 6.140625 -9.390625 C 6.640625 -9.304688 7.101562 -9.179688 7.53125 -9.015625 Z M 7.53125 -9.015625 "
           id="path65" />
      </symbol>
      <symbol
         overflow="visible"
         id="glyph1-10">
        <path
           style="stroke:none;"
           d="M 9.546875 -5.03125 L 9.546875 -4.28125 L 2.53125 -4.28125 C 2.59375 -3.226562 2.90625 -2.425781 3.46875 -1.875 C 4.039062 -1.320312 4.835938 -1.046875 5.859375 -1.046875 C 6.441406 -1.046875 7.007812 -1.117188 7.5625 -1.265625 C 8.113281 -1.410156 8.660156 -1.628906 9.203125 -1.921875 L 9.203125 -0.46875 C 8.648438 -0.238281 8.085938 -0.0664062 7.515625 0.046875 C 6.941406 0.171875 6.359375 0.234375 5.765625 0.234375 C 4.273438 0.234375 3.097656 -0.191406 2.234375 -1.046875 C 1.367188 -1.910156 0.9375 -3.082031 0.9375 -4.5625 C 0.9375 -6.082031 1.347656 -7.285156 2.171875 -8.171875 C 2.992188 -9.066406 4.101562 -9.515625 5.5 -9.515625 C 6.75 -9.515625 7.734375 -9.113281 8.453125 -8.3125 C 9.179688 -7.507812 9.546875 -6.414062 9.546875 -5.03125 Z M 8.03125 -5.484375 C 8.019531 -6.316406 7.785156 -6.976562 7.328125 -7.46875 C 6.867188 -7.96875 6.265625 -8.21875 5.515625 -8.21875 C 4.660156 -8.21875 3.976562 -7.976562 3.46875 -7.5 C 2.957031 -7.019531 2.660156 -6.34375 2.578125 -5.46875 Z M 8.03125 -5.484375 "
           id="path68" />
      </symbol>
      <symbol
         overflow="visible"
         id="glyph1-11">
        <path
           style="stroke:none;"
           d="M 8.28125 -4.640625 C 8.28125 -5.765625 8.046875 -6.644531 7.578125 -7.28125 C 7.117188 -7.925781 6.484375 -8.25 5.671875 -8.25 C 4.867188 -8.25 4.234375 -7.925781 3.765625 -7.28125 C 3.304688 -6.644531 3.078125 -5.765625 3.078125 -4.640625 C 3.078125 -3.515625 3.304688 -2.628906 3.765625 -1.984375 C 4.234375 -1.347656 4.867188 -1.03125 5.671875 -1.03125 C 6.484375 -1.03125 7.117188 -1.347656 7.578125 -1.984375 C 8.046875 -2.628906 8.28125 -3.515625 8.28125 -4.640625 Z M 3.078125 -7.890625 C 3.398438 -8.441406 3.804688 -8.847656 4.296875 -9.109375 C 4.785156 -9.378906 5.367188 -9.515625 6.046875 -9.515625 C 7.179688 -9.515625 8.097656 -9.066406 8.796875 -8.171875 C 9.503906 -7.273438 9.859375 -6.097656 9.859375 -4.640625 C 9.859375 -3.179688 9.503906 -2.003906 8.796875 -1.109375 C 8.097656 -0.210938 7.179688 0.234375 6.046875 0.234375 C 5.367188 0.234375 4.785156 0.101562 4.296875 -0.15625 C 3.804688 -0.425781 3.398438 -0.835938 3.078125 -1.390625 L 3.078125 0 L 1.546875 0 L 1.546875 -12.921875 L 3.078125 -12.921875 Z M 3.078125 -7.890625 "
           id="path71" />
      </symbol>
      <symbol
         overflow="visible"
         id="glyph1-12">
        <path
           style="stroke:none;"
           d="M 7.71875 -7.890625 L 7.71875 -12.921875 L 9.25 -12.921875 L 9.25 0 L 7.71875 0 L 7.71875 -1.390625 C 7.394531 -0.835938 6.988281 -0.425781 6.5 -0.15625 C 6.007812 0.101562 5.421875 0.234375 4.734375 0.234375 C 3.617188 0.234375 2.707031 -0.210938 2 -1.109375 C 1.289062 -2.003906 0.9375 -3.179688 0.9375 -4.640625 C 0.9375 -6.097656 1.289062 -7.273438 2 -8.171875 C 2.707031 -9.066406 3.617188 -9.515625 4.734375 -9.515625 C 5.421875 -9.515625 6.007812 -9.378906 6.5 -9.109375 C 6.988281 -8.847656 7.394531 -8.441406 7.71875 -7.890625 Z M 2.515625 -4.640625 C 2.515625 -3.515625 2.742188 -2.628906 3.203125 -1.984375 C 3.671875 -1.347656 4.304688 -1.03125 5.109375 -1.03125 C 5.921875 -1.03125 6.554688 -1.347656 7.015625 -1.984375 C 7.484375 -2.628906 7.71875 -3.515625 7.71875 -4.640625 C 7.71875 -5.765625 7.484375 -6.644531 7.015625 -7.28125 C 6.554688 -7.925781 5.921875 -8.25 5.109375 -8.25 C 4.304688 -8.25 3.671875 -7.925781 3.203125 -7.28125 C 2.742188 -6.644531 2.515625 -5.765625 2.515625 -4.640625 Z M 2.515625 -4.640625 "
           id="path74" />
      </symbol>
      <symbol
         overflow="visible"
         id="glyph1-13">
        <path
           style="stroke:none;"
           d="M 7.546875 -5.8125 C 7.898438 -5.6875 8.25 -5.425781 8.59375 -5.03125 C 8.9375 -4.632812 9.28125 -4.085938 9.625 -3.390625 L 11.328125 0 L 9.515625 0 L 7.9375 -3.171875 C 7.53125 -4.003906 7.132812 -4.554688 6.75 -4.828125 C 6.363281 -5.097656 5.835938 -5.234375 5.171875 -5.234375 L 3.34375 -5.234375 L 3.34375 0 L 1.671875 0 L 1.671875 -12.390625 L 5.453125 -12.390625 C 6.867188 -12.390625 7.925781 -12.09375 8.625 -11.5 C 9.320312 -10.90625 9.671875 -10.015625 9.671875 -8.828125 C 9.671875 -8.046875 9.488281 -7.394531 9.125 -6.875 C 8.757812 -6.363281 8.234375 -6.007812 7.546875 -5.8125 Z M 3.34375 -11.015625 L 3.34375 -6.609375 L 5.453125 -6.609375 C 6.265625 -6.609375 6.875 -6.796875 7.28125 -7.171875 C 7.695312 -7.546875 7.90625 -8.097656 7.90625 -8.828125 C 7.90625 -9.546875 7.695312 -10.085938 7.28125 -10.453125 C 6.875 -10.828125 6.265625 -11.015625 5.453125 -11.015625 Z M 3.34375 -11.015625 "
           id="path77" />
      </symbol>
      <symbol
         overflow="visible"
         id="glyph1-14">
        <path
           style="stroke:none;"
           d="M 8.84375 -7.515625 C 9.21875 -8.203125 9.671875 -8.707031 10.203125 -9.03125 C 10.734375 -9.351562 11.363281 -9.515625 12.09375 -9.515625 C 13.050781 -9.515625 13.789062 -9.175781 14.3125 -8.5 C 14.84375 -7.820312 15.109375 -6.859375 15.109375 -5.609375 L 15.109375 0 L 13.578125 0 L 13.578125 -5.5625 C 13.578125 -6.445312 13.421875 -7.101562 13.109375 -7.53125 C 12.796875 -7.96875 12.3125 -8.1875 11.65625 -8.1875 C 10.863281 -8.1875 10.238281 -7.921875 9.78125 -7.390625 C 9.320312 -6.867188 9.09375 -6.15625 9.09375 -5.25 L 9.09375 0 L 7.5625 0 L 7.5625 -5.5625 C 7.5625 -6.457031 7.398438 -7.117188 7.078125 -7.546875 C 6.765625 -7.972656 6.28125 -8.1875 5.625 -8.1875 C 4.84375 -8.1875 4.222656 -7.921875 3.765625 -7.390625 C 3.304688 -6.867188 3.078125 -6.15625 3.078125 -5.25 L 3.078125 0 L 1.546875 0 L 1.546875 -9.296875 L 3.078125 -9.296875 L 3.078125 -7.859375 C 3.429688 -8.421875 3.847656 -8.835938 4.328125 -9.109375 C 4.816406 -9.378906 5.394531 -9.515625 6.0625 -9.515625 C 6.738281 -9.515625 7.3125 -9.34375 7.78125 -9 C 8.257812 -8.65625 8.613281 -8.160156 8.84375 -7.515625 Z M 8.84375 -7.515625 "
           id="path80" />
      </symbol>
      <symbol
         overflow="visible"
         id="glyph2-0">
        <path
           style="stroke:none;"
           d="M 0.5625 1.9375 L 0.5625 -7.75 L 6.0625 -7.75 L 6.0625 1.9375 Z M 1.171875 1.328125 L 5.453125 1.328125 L 5.453125 -7.140625 L 1.171875 -7.140625 Z M 1.171875 1.328125 "
           id="path83" />
      </symbol>
      <symbol
         overflow="visible"
         id="glyph2-1">
        <path
           style="stroke:none;"
           d="M 5.640625 -3.734375 L 5.640625 0 L 4.65625 0 L 4.65625 -3.734375 C 4.65625 -4.265625 4.554688 -4.65625 4.359375 -4.90625 C 4.171875 -5.164062 3.875 -5.296875 3.46875 -5.296875 C 3.007812 -5.296875 2.65625 -5.128906 2.40625 -4.796875 C 2.15625 -4.472656 2.03125 -4.007812 2.03125 -3.40625 L 2.03125 0 L 1.046875 0 L 1.046875 -8.359375 L 2.03125 -8.359375 L 2.03125 -5.109375 C 2.207031 -5.453125 2.445312 -5.710938 2.75 -5.890625 C 3.050781 -6.066406 3.40625 -6.15625 3.8125 -6.15625 C 4.425781 -6.15625 4.882812 -5.953125 5.1875 -5.546875 C 5.488281 -5.148438 5.640625 -4.546875 5.640625 -3.734375 Z M 5.640625 -3.734375 "
           id="path86" />
      </symbol>
      <symbol
         overflow="visible"
         id="glyph2-2">
        <path
           style="stroke:none;"
           d="M 5.96875 -3.25 L 5.96875 -2.765625 L 1.6875 -2.765625 L 1.6875 -2.734375 C 1.6875 -2.078125 1.859375 -1.570312 2.203125 -1.21875 C 2.546875 -0.863281 3.03125 -0.6875 3.65625 -0.6875 C 3.96875 -0.6875 4.296875 -0.734375 4.640625 -0.828125 C 4.984375 -0.929688 5.347656 -1.085938 5.734375 -1.296875 L 5.734375 -0.3125 C 5.359375 -0.15625 4.992188 -0.0390625 4.640625 0.03125 C 4.296875 0.113281 3.960938 0.15625 3.640625 0.15625 C 2.703125 0.15625 1.96875 -0.125 1.4375 -0.6875 C 0.914062 -1.25 0.65625 -2.019531 0.65625 -3 C 0.65625 -3.957031 0.910156 -4.722656 1.421875 -5.296875 C 1.941406 -5.867188 2.632812 -6.15625 3.5 -6.15625 C 4.257812 -6.15625 4.859375 -5.894531 5.296875 -5.375 C 5.742188 -4.863281 5.96875 -4.15625 5.96875 -3.25 Z M 4.984375 -3.546875 C 4.972656 -4.128906 4.835938 -4.570312 4.578125 -4.875 C 4.316406 -5.175781 3.941406 -5.328125 3.453125 -5.328125 C 2.972656 -5.328125 2.578125 -5.164062 2.265625 -4.84375 C 1.960938 -4.53125 1.785156 -4.097656 1.734375 -3.546875 Z M 4.984375 -3.546875 "
           id="path89" />
      </symbol>
      <symbol
         overflow="visible"
         id="glyph2-3">
        <path
           style="stroke:none;"
           d="M 1.375 -6.015625 L 3.90625 -6.015625 L 3.90625 -0.765625 L 5.859375 -0.765625 L 5.859375 0 L 0.953125 0 L 0.953125 -0.765625 L 2.921875 -0.765625 L 2.921875 -5.25 L 1.375 -5.25 Z M 2.921875 -8.359375 L 3.90625 -8.359375 L 3.90625 -7.109375 L 2.921875 -7.109375 Z M 2.921875 -8.359375 "
           id="path92" />
      </symbol>
      <symbol
         overflow="visible"
         id="glyph2-4">
        <path
           style="stroke:none;"
           d="M 4.609375 -3.0625 C 4.609375 -3.800781 4.488281 -4.363281 4.25 -4.75 C 4.007812 -5.132812 3.65625 -5.328125 3.1875 -5.328125 C 2.707031 -5.328125 2.335938 -5.132812 2.078125 -4.75 C 1.828125 -4.363281 1.703125 -3.800781 1.703125 -3.0625 C 1.703125 -2.3125 1.828125 -1.742188 2.078125 -1.359375 C 2.335938 -0.972656 2.710938 -0.78125 3.203125 -0.78125 C 3.660156 -0.78125 4.007812 -0.972656 4.25 -1.359375 C 4.488281 -1.753906 4.609375 -2.320312 4.609375 -3.0625 Z M 5.59375 -0.390625 C 5.59375 0.515625 5.378906 1.195312 4.953125 1.65625 C 4.523438 2.125 3.898438 2.359375 3.078125 2.359375 C 2.804688 2.359375 2.519531 2.332031 2.21875 2.28125 C 1.925781 2.238281 1.628906 2.164062 1.328125 2.0625 L 1.328125 1.09375 C 1.679688 1.257812 2 1.378906 2.28125 1.453125 C 2.570312 1.535156 2.835938 1.578125 3.078125 1.578125 C 3.609375 1.578125 3.992188 1.429688 4.234375 1.140625 C 4.484375 0.847656 4.609375 0.390625 4.609375 -0.234375 L 4.609375 -0.953125 C 4.453125 -0.617188 4.238281 -0.367188 3.96875 -0.203125 C 3.695312 -0.0351562 3.363281 0.046875 2.96875 0.046875 C 2.269531 0.046875 1.707031 -0.234375 1.28125 -0.796875 C 0.863281 -1.359375 0.65625 -2.113281 0.65625 -3.0625 C 0.65625 -4 0.863281 -4.75 1.28125 -5.3125 C 1.707031 -5.875 2.269531 -6.15625 2.96875 -6.15625 C 3.351562 -6.15625 3.679688 -6.078125 3.953125 -5.921875 C 4.222656 -5.773438 4.441406 -5.539062 4.609375 -5.21875 L 4.609375 -6 L 5.59375 -6 Z M 5.59375 -0.390625 "
           id="path95" />
      </symbol>
      <symbol
         overflow="visible"
         id="glyph2-5">
        <path
           style="stroke:none;"
           d="M 3.296875 -7.71875 L 3.296875 -6.015625 L 5.546875 -6.015625 L 5.546875 -5.25 L 3.296875 -5.25 L 3.296875 -1.984375 C 3.296875 -1.535156 3.378906 -1.222656 3.546875 -1.046875 C 3.710938 -0.878906 4.007812 -0.796875 4.4375 -0.796875 L 5.546875 -0.796875 L 5.546875 0 L 4.328125 0 C 3.585938 0 3.066406 -0.144531 2.765625 -0.4375 C 2.460938 -0.738281 2.3125 -1.253906 2.3125 -1.984375 L 2.3125 -5.25 L 0.703125 -5.25 L 0.703125 -6.015625 L 2.3125 -6.015625 L 2.3125 -7.71875 Z M 3.296875 -7.71875 "
           id="path98" />
      </symbol>
      <symbol
         overflow="visible"
         id="glyph2-6">
        <path
           style="stroke:none;"
           d="M 0 -6.015625 L 0.984375 -6.015625 L 2.03125 -1.15625 L 2.890625 -4.265625 L 3.734375 -4.265625 L 4.59375 -1.15625 L 5.640625 -6.015625 L 6.625 -6.015625 L 5.21875 0 L 4.265625 0 L 3.3125 -3.296875 L 2.359375 0 L 1.40625 0 Z M 0 -6.015625 "
           id="path101" />
      </symbol>
      <symbol
         overflow="visible"
         id="glyph2-7">
        <path
           style="stroke:none;"
           d="M 4.609375 -5.25 L 4.609375 -8.359375 L 5.59375 -8.359375 L 5.59375 0 L 4.609375 0 L 4.609375 -0.75 C 4.441406 -0.457031 4.222656 -0.234375 3.953125 -0.078125 C 3.679688 0.078125 3.363281 0.15625 3 0.15625 C 2.269531 0.15625 1.695312 -0.125 1.28125 -0.6875 C 0.863281 -1.25 0.65625 -2.03125 0.65625 -3.03125 C 0.65625 -4 0.863281 -4.757812 1.28125 -5.3125 C 1.707031 -5.875 2.28125 -6.15625 3 -6.15625 C 3.363281 -6.15625 3.679688 -6.078125 3.953125 -5.921875 C 4.234375 -5.765625 4.453125 -5.539062 4.609375 -5.25 Z M 1.703125 -3 C 1.703125 -2.238281 1.820312 -1.660156 2.0625 -1.265625 C 2.3125 -0.878906 2.671875 -0.6875 3.140625 -0.6875 C 3.617188 -0.6875 3.984375 -0.878906 4.234375 -1.265625 C 4.484375 -1.660156 4.609375 -2.238281 4.609375 -3 C 4.609375 -3.757812 4.484375 -4.335938 4.234375 -4.734375 C 3.984375 -5.128906 3.617188 -5.328125 3.140625 -5.328125 C 2.671875 -5.328125 2.3125 -5.128906 2.0625 -4.734375 C 1.820312 -4.347656 1.703125 -3.769531 1.703125 -3 Z M 1.703125 -3 "
           id="path104" />
      </symbol>
    </g>
  </defs>
  <path
     inkscape:connector-curvature="0"
     id="path115"
     d="m 21.10156,21.10156 h 600 v 320 h -600 z m 0,0"
     style="fill:#a3d4a6;fill-opacity:1;fill-rule:evenodd;stroke:#000000;stroke-width:1;stroke-linecap:butt;stroke-linejoin:miter;stroke-miterlimit:10;stroke-opacity:1" />
  <path
     inkscape:connector-curvature="0"
     id="path117"
     d="m 61.10156,61.10156 h 520 v 240 h -520 z m 0,0"
     style="fill:#e3e3e3;fill-opacity:1;fill-rule:evenodd;stroke:#000000;stroke-width:1;stroke-linecap:butt;stroke-linejoin:miter;stroke-miterlimit:10;stroke-opacity:1" />
  <path
     inkscape:connector-curvature="0"
     id="path119"
     d="m 101.10156,101.10156 h 440 v 160 h -440 z m 0,0"
     style="fill:#ffde7f;fill-opacity:1;fill-rule:evenodd;stroke:#000000;stroke-width:1;stroke-linecap:butt;stroke-linejoin:miter;stroke-miterlimit:10;stroke-opacity:1" />
  <path
     inkscape:connector-curvature="0"
     id="path121"
     d="m 141.10156,141.10156 h 360 v 80 h -360 z m 0,0"
     style="fill:none;stroke:#000000;stroke-width:1;stroke-linecap:butt;stroke-linejoin:miter;stroke-miterlimit:10;stroke-opacity:1" />
  <g
     id="g135"
     style="fill:#000000;fill-opacity:1">
    <use
       height="100%"
       width="100%"
       id="use123"
       y="46.741482"
       x="41.101562"
       xlink:href="#glyph0-1" />
    <use
       height="100%"
       width="100%"
       id="use125"
       y="46.741482"
       x="51.336479"
       xlink:href="#glyph0-2" />
    <use
       height="100%"
       width="100%"
       id="use127"
       y="46.741482"
       x="61.5714"
       xlink:href="#glyph0-3" />
    <use
       height="100%"
       width="100%"
       id="use129"
       y="46.741482"
       x="71.806313"
       xlink:href="#glyph0-4" />
    <use
       height="100%"
       width="100%"
       id="use131"
       y="46.741482"
       x="82.041229"
       xlink:href="#glyph0-5" />
    <use
       height="100%"
       width="100%"
       id="use133"
       y="46.741482"
       x="92.276154"
       xlink:href="#glyph0-6" />
  </g>
  <g
     id="g149"
     style="fill:#000000;fill-opacity:1">
    <use
       height="100%"
       width="100%"
       id="use137"
       y="86.991486"
       x="81.101562"
       xlink:href="#glyph0-7" />
    <use
       height="100%"
       width="100%"
       id="use139"
       y="86.991486"
       x="91.336479"
       xlink:href="#glyph0-8" />
    <use
       height="100%"
       width="100%"
       id="use141"
       y="86.991486"
       x="101.5714"
       xlink:href="#glyph0-3" />
    <use
       height="100%"
       width="100%"
       id="use143"
       y="86.991486"
       x="111.80631"
       xlink:href="#glyph0-9" />
    <use
       height="100%"
       width="100%"
       id="use145"
       y="86.991486"
       x="122.04123"
       xlink:href="#glyph0-10" />
    <use
       height="100%"
       width="100%"
       id="use147"
       y="86.991486"
       x="132.27615"
       xlink:href="#glyph0-3" />
  </g>
  <g
     id="g165"
     style="fill:#000000;fill-opacity:1">
    <use
       height="100%"
       width="100%"
       id="use151"
       y="126.74149"
       x="121.10156"
       xlink:href="#glyph0-11" />
    <use
       height="100%"
       width="100%"
       id="use153"
       y="126.74149"
       x="131.33649"
       xlink:href="#glyph0-2" />
    <use
       height="100%"
       width="100%"
       id="use155"
       y="126.74149"
       x="141.5714"
       xlink:href="#glyph0-9" />
    <use
       height="100%"
       width="100%"
       id="use157"
       y="126.74149"
       x="151.80632"
       xlink:href="#glyph0-9" />
    <use
       height="100%"
       width="100%"
       id="use159"
       y="126.74149"
       x="162.04123"
       xlink:href="#glyph0-5" />
    <use
       height="100%"
       width="100%"
       id="use161"
       y="126.74149"
       x="172.27615"
       xlink:href="#glyph0-6" />
    <use
       height="100%"
       width="100%"
       id="use163"
       y="126.74149"
       x="182.51106"
       xlink:href="#glyph0-4" />
  </g>
  <g
     id="g179"
     style="fill:#000000;fill-opacity:1">
    <use
       height="100%"
       width="100%"
       id="use167"
       y="186.99149"
       x="296.92188"
       xlink:href="#glyph1-1" />
    <use
       height="100%"
       width="100%"
       id="use169"
       y="186.99149"
       x="301.93542"
       xlink:href="#glyph1-2" />
    <use
       height="100%"
       width="100%"
       id="use171"
       y="186.99149"
       x="312.7099"
       xlink:href="#glyph1-3" />
    <use
       height="100%"
       width="100%"
       id="use173"
       y="186.99149"
       x="323.48438"
       xlink:href="#glyph1-4" />
    <use
       height="100%"
       width="100%"
       id="use175"
       y="186.99149"
       x="333.90186"
       xlink:href="#glyph1-5" />
    <use
       height="100%"
       width="100%"
       id="use177"
       y="186.99149"
       x="338.62488"
       xlink:href="#glyph1-6" />
  </g>
  <g
     id="g193"
     style="fill:#000000;fill-opacity:1">
    <use
       height="100%"
       width="100%"
       id="use181"
       y="205.03348"
       x="165.10156"
       xlink:href="#glyph2-1" />
    <use
       height="100%"
       width="100%"
       id="use183"
       y="205.03348"
       x="171.72401"
       xlink:href="#glyph2-2" />
    <use
       height="100%"
       width="100%"
       id="use185"
       y="205.03348"
       x="178.34647"
       xlink:href="#glyph2-3" />
    <use
       height="100%"
       width="100%"
       id="use187"
       y="205.03348"
       x="184.96892"
       xlink:href="#glyph2-4" />
    <use
       height="100%"
       width="100%"
       id="use189"
       y="205.03348"
       x="191.59137"
       xlink:href="#glyph2-1" />
    <use
       height="100%"
       width="100%"
       id="use191"
       y="205.03348"
       x="198.21381"
       xlink:href="#glyph2-5" />
  </g>
  <g
     id="g205"
     style="fill:#000000;fill-opacity:1">
    <use
       height="100%"
       width="100%"
       id="use195"
       y="175.03348"
       x="454.55859"
       xlink:href="#glyph2-6" />
    <use
       height="100%"
       width="100%"
       id="use197"
       y="175.03348"
       x="461.18103"
       xlink:href="#glyph2-3" />
    <use
       height="100%"
       width="100%"
       id="use199"
       y="175.03348"
       x="467.8035"
       xlink:href="#glyph2-7" />
    <use
       height="100%"
       width="100%"
       id="use201"
       y="175.03348"
       x="474.42593"
       xlink:href="#glyph2-5" />
    <use
       height="100%"
       width="100%"
       id="use203"
       y="175.03348"
       x="481.0484"
       xlink:href="#glyph2-1" />
  </g>
  <path
     inkscape:connector-curvature="0"
     id="path207"
     d="M 148.82422,161.10156 H 493.375"
     style="fill:none;stroke:#000000;stroke-width:1;stroke-linecap:butt;stroke-linejoin:miter;stroke-miterlimit:10;stroke-dasharray:2, 2;stroke-opacity:1" />
  <path
     inkscape:connector-curvature="0"
     id="path209"
     d="m 141.32422,161.10156 10,-5 -2.5,5 2.5,5 z m 0,0"
     style="fill:#000000;fill-opacity:1;fill-rule:evenodd;stroke:#000000;stroke-width:1;stroke-linecap:butt;stroke-linejoin:miter;stroke-miterlimit:10;stroke-opacity:1" />
  <path
     inkscape:connector-curvature="0"
     id="path211"
     d="m 500.875,161.10156 -10,5 2.5,-5 -2.5,-5 z m 0,0"
     style="fill:#000000;fill-opacity:1;fill-rule:evenodd;stroke:#000000;stroke-width:1;stroke-linecap:butt;stroke-linejoin:miter;stroke-miterlimit:10;stroke-opacity:1" />
  <path
     inkscape:connector-curvature="0"
     id="path213"
     d="M 161.10156,148.82422 V 213.375"
     style="fill:none;stroke:#000000;stroke-width:1;stroke-linecap:butt;stroke-linejoin:miter;stroke-miterlimit:10;stroke-dasharray:2, 2;stroke-opacity:1" />
  <path
     inkscape:connector-curvature="0"
     id="path215"
     d="m 161.10156,141.32422 5,10 -5,-2.5 -5,2.5 z m 0,0"
     style="fill:#000000;fill-opacity:1;fill-rule:evenodd;stroke:#000000;stroke-width:1;stroke-linecap:butt;stroke-linejoin:miter;stroke-miterlimit:10;stroke-opacity:1" />
  <path
     inkscape:connector-curvature="0"
     id="path217"
     d="m 161.10156,220.875 -5,-10 5,2.5 5,-2.5 z m 0,0"
     style="fill:#000000;fill-opacity:1;fill-rule:evenodd;stroke:#000000;stroke-width:1;stroke-linecap:butt;stroke-linejoin:miter;stroke-miterlimit:10;stroke-opacity:1" />
  <g
     id="g245"
     style="fill:#000000;fill-opacity:1">
    <use
       height="100%"
       width="100%"
       id="use219"
       y="46.741482"
       x="256.08203"
       xlink:href="#glyph1-7" />
    <use
       height="100%"
       width="100%"
       id="use221"
       y="46.741482"
       x="267.71155"
       xlink:href="#glyph1-8" />
    <use
       height="100%"
       width="100%"
       id="use223"
       y="46.741482"
       x="278.48599"
       xlink:href="#glyph1-9" />
    <use
       height="100%"
       width="100%"
       id="use225"
       y="46.741482"
       x="287.3429"
       xlink:href="#glyph1-9" />
    <use
       height="100%"
       width="100%"
       id="use227"
       y="46.741482"
       x="296.19977"
       xlink:href="#glyph1-10" />
    <use
       height="100%"
       width="100%"
       id="use229"
       y="46.741482"
       x="306.65875"
       xlink:href="#glyph1-2" />
    <use
       height="100%"
       width="100%"
       id="use231"
       y="46.741482"
       x="317.43323"
       xlink:href="#glyph1-4" />
    <use
       height="100%"
       width="100%"
       id="use233"
       y="46.741482"
       x="327.85071"
       xlink:href="#glyph1-11" />
    <use
       height="100%"
       width="100%"
       id="use235"
       y="46.741482"
       x="338.64172"
       xlink:href="#glyph1-9" />
    <use
       height="100%"
       width="100%"
       id="use237"
       y="46.741482"
       x="347.4986"
       xlink:href="#glyph1-6" />
    <use
       height="100%"
       width="100%"
       id="use239"
       y="46.741482"
       x="354.16418"
       xlink:href="#glyph1-4" />
    <use
       height="100%"
       width="100%"
       id="use241"
       y="46.741482"
       x="364.58167"
       xlink:href="#glyph1-2" />
    <use
       height="100%"
       width="100%"
       id="use243"
       y="46.741482"
       x="375.35611"
       xlink:href="#glyph1-12" />
  </g>
  <g
     id="g271"
     style="fill:#000000;fill-opacity:1">
    <use
       height="100%"
       width="100%"
       id="use247"
       y="126.74149"
       x="262.85938"
       xlink:href="#glyph1-1" />
    <use
       height="100%"
       width="100%"
       id="use249"
       y="126.74149"
       x="267.87292"
       xlink:href="#glyph1-2" />
    <use
       height="100%"
       width="100%"
       id="use251"
       y="126.74149"
       x="278.6474"
       xlink:href="#glyph1-2" />
    <use
       height="100%"
       width="100%"
       id="use253"
       y="126.74149"
       x="289.42188"
       xlink:href="#glyph1-10" />
    <use
       height="100%"
       width="100%"
       id="use255"
       y="126.74149"
       x="299.88086"
       xlink:href="#glyph1-2" />
    <use
       height="100%"
       width="100%"
       id="use257"
       y="126.74149"
       x="310.65533"
       xlink:href="#glyph1-4" />
    <use
       height="100%"
       width="100%"
       id="use259"
       y="126.74149"
       x="321.07281"
       xlink:href="#glyph1-11" />
    <use
       height="100%"
       width="100%"
       id="use261"
       y="126.74149"
       x="331.86383"
       xlink:href="#glyph1-9" />
    <use
       height="100%"
       width="100%"
       id="use263"
       y="126.74149"
       x="340.7207"
       xlink:href="#glyph1-6" />
    <use
       height="100%"
       width="100%"
       id="use265"
       y="126.74149"
       x="347.38629"
       xlink:href="#glyph1-4" />
    <use
       height="100%"
       width="100%"
       id="use267"
       y="126.74149"
       x="357.80377"
       xlink:href="#glyph1-2" />
    <use
       height="100%"
       width="100%"
       id="use269"
       y="126.74149"
       x="368.57825"
       xlink:href="#glyph1-12" />
  </g>
  <g
     id="g285"
     style="fill:#000000;fill-opacity:1">
    <use
       height="100%"
       width="100%"
       id="use273"
       y="86.991486"
       x="285.90625"
       xlink:href="#glyph1-13" />
    <use
       height="100%"
       width="100%"
       id="use275"
       y="86.991486"
       x="297.34479"
       xlink:href="#glyph1-4" />
    <use
       height="100%"
       width="100%"
       id="use277"
       y="86.991486"
       x="307.76227"
       xlink:href="#glyph1-3" />
    <use
       height="100%"
       width="100%"
       id="use279"
       y="86.991486"
       x="318.53674"
       xlink:href="#glyph1-14" />
    <use
       height="100%"
       width="100%"
       id="use281"
       y="86.991486"
       x="335.0968"
       xlink:href="#glyph1-10" />
    <use
       height="100%"
       width="100%"
       id="use283"
       y="86.991486"
       x="345.55579"
       xlink:href="#glyph1-2" />
  </g>
</svg>
