{
  "box-model.svg": {
    "author_name": "Stefan Rothe",
    "licence": "CC-BY-NC-SA"
  },
  "colour-rgb.svg": {
    "author_name": "Quark67",
    "author_uri": "https://fr.wikipedia.org/wiki/Discussion_utilisateur:Quark67",
    "licence": "CC-BY-SA-3.0",
    "source_name": "Wikimedia Commons",
    "source_uri": "https://commons.wikimedia.org/wiki/File:Synthese%2B.svg"
  },
  "pixels.jpg": {
    "author_name": "Kallerna",
    "author_uri": "https://commons.wikimedia.org/wiki/User:Kallerna",
    "licence": "CC-BY-SA-3.0",
    "source_name": "Wikimedia Commons",
    "source_uri": "https://commons.wikimedia.org/wiki/File:Tv_pixels.JPG"
  }
}
